<?xml version="1.0" encoding="UTF-8" standalone="no"?>
<!-- Generator: Adobe Illustrator 22.0.0, SVG Export Plug-In . SVG Version: 6.00 Build 0)  -->

<svg
   version="1.1"
   id="Calque_1"
   x="0px"
   y="0px"
   viewBox="0 0 634.99999 635"
   xml:space="preserve"
   sodipodi:docname="intim-idees-vertical.svg"
   width="635"
   height="635"
   inkscape:version="1.1.1 (26b7af14f2, 2022-01-19)"
   xmlns:inkscape="http://www.inkscape.org/namespaces/inkscape"
   xmlns:sodipodi="http://sodipodi.sourceforge.net/DTD/sodipodi-0.dtd"
   xmlns="http://www.w3.org/2000/svg"
   xmlns:svg="http://www.w3.org/2000/svg"><defs
   id="defs93" /><sodipodi:namedview
   id="namedview91"
   pagecolor="#ffffff"
   bordercolor="#666666"
   borderopacity="1.0"
   inkscape:pageshadow="2"
   inkscape:pageopacity="0.0"
   inkscape:pagecheckerboard="0"
   showgrid="false"
   inkscape:zoom="0.65709729"
   inkscape:cx="169.68568"
   inkscape:cy="391.11408"
   inkscape:window-width="1920"
   inkscape:window-height="1018"
   inkscape:window-x="218"
   inkscape:window-y="1440"
   inkscape:window-maximized="1"
   inkscape:current-layer="Calque_1" />
<style
   type="text/css"
   id="style2">
	.st0{fill:#20336B;}
	.st1{fill:#AD0042;}
	.st2{fill:#FCB315;}
	.st3{fill:none;}
	.st4{fill:#919191;}
	.st5{fill:#FCB315;stroke:#FCB315;stroke-width:5;stroke-linecap:round;stroke-miterlimit:10;}
	.st6{fill:#FFFFFF;}
</style>
<g
   id="g88"
   transform="translate(-0.80000305,4.9500046)">
	<g
   id="g44">
		<rect
   x="152.7"
   y="519.79999"
   class="st3"
   width="331.29999"
   height="34"
   id="rect4" />
		<path
   class="st4"
   d="m 154.2,548.2 c 0,-0.3 0.1,-0.7 0.4,-1.1 0.3,-0.4 0.6,-0.5 0.9,-0.5 0.2,0 0.5,0.2 0.9,0.6 l 1.2,1.2 c 0.4,0.5 1.1,0.9 2,1.2 0.9,0.4 2,0.5 3.2,0.5 2,0 3.6,-0.5 4.7,-1.5 1.1,-1 1.7,-2.5 1.7,-4.4 0,-1.3 -0.3,-2.4 -0.8,-3.3 -0.5,-0.9 -1.2,-1.6 -2,-2.1 -0.8,-0.5 -1.7,-1 -2.8,-1.4 l -3.1,-1.2 c -1,-0.4 -2,-0.9 -2.8,-1.4 -0.8,-0.6 -1.5,-1.3 -2,-2.4 -0.5,-1 -0.8,-2.2 -0.8,-3.6 0,-1.5 0.3,-2.8 0.8,-3.9 0.5,-1.1 1.3,-1.9 2.3,-2.4 0.9,-0.5 1.9,-0.9 2.9,-1.2 1,-0.2 2,-0.4 3.1,-0.4 1.7,0 3.4,0.3 4.9,0.8 1.5,0.5 2.3,1.1 2.3,1.9 0,0.3 -0.1,0.7 -0.4,1.1 -0.2,0.4 -0.5,0.5 -0.9,0.5 -0.2,0 -0.5,-0.1 -1,-0.4 -0.5,-0.3 -1.2,-0.5 -2,-0.8 -0.8,-0.3 -1.9,-0.4 -3,-0.4 -1.8,0 -3.3,0.4 -4.5,1.2 -1.2,0.8 -1.8,2 -1.8,3.8 0,1.2 0.4,2.3 1.1,3.1 0.7,0.8 1.6,1.4 2.6,1.8 1.1,0.4 2.2,0.8 3.4,1.3 1.2,0.5 2.4,1.1 3.4,1.7 1.1,0.6 1.9,1.5 2.6,2.8 0.7,1.3 1.1,2.8 1.1,4.7 0,2.9 -0.8,5.1 -2.5,6.6 -1.6,1.5 -3.8,2.2 -6.6,2.2 -2.5,0 -4.6,-0.5 -6.3,-1.6 -1.3,-1 -2.2,-2 -2.2,-3 z"
   id="path6" />
		<path
   class="st4"
   d="m 175.4,522.6 c 0,-0.5 0.2,-1 0.6,-1.4 0.4,-0.4 0.8,-0.6 1.3,-0.6 0.5,0 1,0.2 1.3,0.6 0.4,0.4 0.6,0.9 0.6,1.4 0,0.6 -0.5,2.3 -1.6,4.9 -0.2,0.3 -0.4,0.5 -0.7,0.5 -0.3,0 -0.5,-0.1 -0.7,-0.3 -0.2,-0.2 -0.3,-0.4 -0.3,-0.6 0,-0.2 0,-0.3 0.1,-0.4 l 0.8,-2.2 c -0.4,-0.1 -0.7,-0.4 -0.9,-0.7 -0.3,-0.4 -0.5,-0.8 -0.5,-1.2 z"
   id="path8" />
		<path
   class="st4"
   d="m 181.9,544.6 v -4.8 c 0,-2.1 0.8,-4 2.4,-5.6 1.6,-1.6 3.5,-2.3 5.8,-2.3 2.2,0 4.1,0.7 5.7,2.2 1.6,1.5 2.4,3.4 2.4,5.6 0,0.8 -0.1,1.4 -0.3,1.9 -0.2,0.5 -0.5,0.8 -0.9,1 -0.4,0.2 -0.8,0.3 -1.1,0.4 -0.3,0.1 -0.8,0.1 -1.4,0.1 h -9.7 v 1.6 c 0,1.7 0.6,3 1.8,4.1 1.2,1 2.8,1.5 4.7,1.5 1,0 1.8,-0.1 2.6,-0.4 0.7,-0.3 1.3,-0.6 1.7,-0.9 0.4,-0.3 0.7,-0.4 0.9,-0.4 0.3,0 0.6,0.2 0.8,0.5 0.2,0.3 0.4,0.6 0.4,0.9 0,0.6 -0.6,1.2 -1.8,1.9 -1.2,0.6 -2.8,1 -4.6,1 -2.7,0 -4.9,-0.8 -6.7,-2.3 -1.9,-1.5 -2.7,-3.5 -2.7,-6 z m 2.7,-3.5 h 8.6 c 0.9,0 1.4,-0.1 1.7,-0.3 0.3,-0.2 0.4,-0.6 0.4,-1.2 0,-1.4 -0.5,-2.7 -1.5,-3.8 -1,-1.1 -2.3,-1.6 -3.8,-1.6 -1.5,0 -2.8,0.5 -3.8,1.5 -1,1 -1.6,2.3 -1.6,3.7 z"
   id="path10" />
		<path
   class="st4"
   d="m 202.3,551.4 v -18.2 c 0,-0.3 0.1,-0.6 0.4,-0.8 0.3,-0.2 0.6,-0.3 1,-0.3 0.3,0 0.6,0.1 0.9,0.3 0.3,0.2 0.4,0.5 0.4,0.7 v 2 c 0.5,-0.9 1.2,-1.7 2.2,-2.4 1,-0.7 2.2,-1 3.5,-1 2.1,0 3.9,0.8 5.4,2.4 1.5,1.6 2.3,3.5 2.3,5.7 v 11.4 c 0,0.3 -0.1,0.6 -0.4,0.8 -0.3,0.2 -0.6,0.3 -1,0.3 -0.3,0 -0.7,-0.1 -0.9,-0.3 -0.3,-0.2 -0.4,-0.5 -0.4,-0.8 V 540 c 0,-1.4 -0.5,-2.7 -1.6,-3.8 -1.1,-1.1 -2.3,-1.7 -3.8,-1.7 -1.3,0 -2.5,0.5 -3.6,1.5 -1,1 -1.5,2.3 -1.5,3.9 v 11.4 c 0,0.3 -0.1,0.5 -0.4,0.8 -0.3,0.2 -0.6,0.3 -1,0.3 -0.4,0 -0.7,-0.1 -1,-0.3 -0.3,-0.2 -0.5,-0.4 -0.5,-0.7 z"
   id="path12" />
		<path
   class="st4"
   d="m 223.6,546.2 v -22.6 c 0,-0.3 0.1,-0.5 0.4,-0.7 0.3,-0.2 0.6,-0.3 0.9,-0.3 0.4,0 0.7,0.1 1,0.3 0.3,0.2 0.4,0.4 0.4,0.7 v 8.6 h 5.5 c 0.3,0 0.5,0.1 0.7,0.4 0.2,0.3 0.3,0.5 0.3,0.8 0,0.3 -0.1,0.6 -0.3,0.8 -0.2,0.2 -0.4,0.3 -0.7,0.3 h -5.5 v 11.6 c 0,1.4 0.3,2.4 0.9,2.9 0.6,0.6 1.6,0.8 3.1,0.8 h 1.2 c 0.4,0 0.7,0.1 0.9,0.4 0.2,0.3 0.4,0.6 0.4,0.9 0,0.4 -0.1,0.7 -0.4,0.9 -0.2,0.3 -0.6,0.4 -0.9,0.4 h -1.2 c -4.5,0.1 -6.7,-2 -6.7,-6.2 z"
   id="path14" />
		<path
   class="st4"
   d="m 236.4,551.4 v -18.2 c 0,-0.3 0.1,-0.5 0.4,-0.7 0.3,-0.2 0.6,-0.3 1,-0.3 0.4,0 0.7,0.1 0.9,0.3 0.3,0.2 0.4,0.5 0.4,0.7 v 2.1 c 0.5,-1 1.3,-1.8 2.3,-2.4 1,-0.6 2.2,-1 3.5,-1 h 1.5 c 0.3,0 0.5,0.1 0.8,0.4 0.2,0.3 0.3,0.6 0.3,0.9 0,0.3 -0.1,0.7 -0.3,0.9 -0.2,0.3 -0.5,0.4 -0.8,0.4 h -1.5 c -1.5,0 -2.8,0.6 -4,1.7 -1.1,1.2 -1.7,2.7 -1.7,4.5 v 10.6 c 0,0.3 -0.1,0.5 -0.4,0.8 -0.3,0.2 -0.6,0.3 -1,0.3 -0.4,0 -0.7,-0.1 -1,-0.3 -0.2,-0.2 -0.4,-0.4 -0.4,-0.7 z"
   id="path16" />
		<path
   class="st4"
   d="m 249.2,547.1 c 0,-2.3 0.9,-3.8 2.6,-4.7 1.7,-0.9 4.2,-1.3 7.5,-1.3 h 2.2 v -1 c 0,-1.5 -0.4,-2.9 -1.2,-4 -0.8,-1.1 -2.1,-1.7 -3.8,-1.7 -1.1,0 -2.2,0.2 -3.1,0.6 -0.9,0.4 -1.4,0.6 -1.5,0.6 -0.3,0 -0.6,-0.2 -0.8,-0.5 -0.2,-0.3 -0.3,-0.6 -0.3,-1 0,-0.5 0.6,-1 1.8,-1.5 1.2,-0.5 2.6,-0.7 4,-0.7 2.7,0 4.7,0.8 5.9,2.3 1.2,1.6 1.9,3.5 1.9,6 v 11.2 c 0,0.3 -0.1,0.6 -0.4,0.8 -0.3,0.2 -0.6,0.3 -1,0.3 -0.4,0 -0.7,-0.1 -0.9,-0.3 -0.2,-0.2 -0.4,-0.5 -0.4,-0.8 v -1.9 c -1.9,2.2 -4.1,3.3 -6.5,3.3 -1.7,0 -3.1,-0.5 -4.2,-1.4 -1.2,-1 -1.8,-2.4 -1.8,-4.3 z m 2.8,-0.2 c 0,1.2 0.3,2.1 1,2.7 0.7,0.6 1.6,0.9 2.7,0.9 1.3,0 2.6,-0.5 3.8,-1.5 1.2,-1 1.8,-2 1.8,-3 v -2.8 h -1.8 c -1.1,0 -2.1,0 -2.9,0.1 -0.8,0.1 -1.6,0.2 -2.3,0.5 -0.8,0.2 -1.4,0.6 -1.8,1.1 -0.3,0.5 -0.5,1.2 -0.5,2 z"
   id="path18" />
		<path
   class="st4"
   d="m 269.5,525.6 c -0.4,-0.4 -0.6,-0.8 -0.6,-1.3 0,-0.5 0.2,-0.9 0.6,-1.2 0.4,-0.3 0.8,-0.5 1.4,-0.5 0.5,0 1,0.2 1.3,0.5 0.4,0.3 0.5,0.8 0.5,1.2 0,0.4 -0.2,0.9 -0.5,1.3 -0.4,0.4 -0.8,0.5 -1.3,0.5 -0.6,0.1 -1,-0.1 -1.4,-0.5 z m 0,25.8 v -18.2 c 0,-0.3 0.1,-0.5 0.4,-0.7 0.3,-0.2 0.6,-0.3 1,-0.3 0.4,0 0.7,0.1 1,0.3 0.3,0.2 0.4,0.4 0.4,0.7 v 18.2 c 0,0.3 -0.1,0.5 -0.4,0.8 -0.3,0.2 -0.6,0.3 -1,0.3 -0.4,0 -0.7,-0.1 -1,-0.3 -0.3,-0.3 -0.4,-0.5 -0.4,-0.8 z"
   id="path20" />
		<path
   class="st4"
   d="M 276.9,544.6 V 540 c 0,-2.2 0.8,-4.1 2.3,-5.7 1.5,-1.6 3.3,-2.4 5.4,-2.4 1.3,0 2.5,0.3 3.5,1 1,0.6 1.7,1.4 2.2,2.3 v -14.4 c 0,-0.3 0.1,-0.5 0.4,-0.7 0.3,-0.2 0.6,-0.3 1,-0.3 0.4,0 0.7,0.1 1,0.3 0.3,0.2 0.4,0.4 0.4,0.7 v 30.6 c 0,0.3 -0.1,0.5 -0.4,0.8 -0.3,0.2 -0.6,0.3 -0.9,0.3 -0.3,0 -0.7,-0.1 -0.9,-0.3 -0.3,-0.2 -0.4,-0.5 -0.4,-0.8 v -1.9 c -0.5,0.9 -1.3,1.7 -2.3,2.4 -1.1,0.7 -2.3,1 -3.5,1 -2,0 -3.8,-0.8 -5.3,-2.5 -1.7,-1.7 -2.5,-3.6 -2.5,-5.8 z m 2.8,0 c 0,1.4 0.5,2.7 1.6,3.8 1.1,1.1 2.3,1.7 3.7,1.7 1.4,0 2.6,-0.5 3.7,-1.5 1.1,-1 1.6,-1.9 1.6,-2.7 v -6 c 0,-1.6 -0.5,-2.9 -1.6,-3.9 -1.1,-1 -2.3,-1.5 -3.6,-1.5 -1.5,0 -2.7,0.6 -3.8,1.7 -1.1,1.1 -1.6,2.4 -1.6,3.8 z"
   id="path22" />
		<path
   class="st4"
   d="m 297.7,544.6 v -4.8 c 0,-2.1 0.8,-4 2.4,-5.6 1.6,-1.6 3.5,-2.3 5.8,-2.3 2.2,0 4.1,0.7 5.7,2.2 1.6,1.5 2.4,3.4 2.4,5.6 0,0.8 -0.1,1.4 -0.3,1.9 -0.2,0.5 -0.5,0.8 -0.9,1 -0.4,0.2 -0.8,0.3 -1.1,0.4 -0.3,0.1 -0.8,0.1 -1.4,0.1 h -9.7 v 1.6 c 0,1.7 0.6,3 1.8,4.1 1.2,1 2.8,1.5 4.7,1.5 1,0 1.8,-0.1 2.6,-0.4 0.7,-0.3 1.3,-0.6 1.7,-0.9 0.4,-0.3 0.7,-0.4 0.9,-0.4 0.3,0 0.6,0.2 0.8,0.5 0.2,0.3 0.4,0.6 0.4,0.9 0,0.6 -0.6,1.2 -1.8,1.9 -1.2,0.6 -2.8,1 -4.6,1 -2.7,0 -4.9,-0.8 -6.7,-2.3 -1.8,-1.5 -2.7,-3.5 -2.7,-6 z m 2.8,-3.5 h 8.6 c 0.9,0 1.4,-0.1 1.7,-0.3 0.3,-0.2 0.4,-0.6 0.4,-1.2 0,-1.4 -0.5,-2.7 -1.5,-3.8 -1,-1.1 -2.3,-1.6 -3.8,-1.6 -1.5,0 -2.8,0.5 -3.8,1.5 -1,1 -1.6,2.3 -1.6,3.7 z"
   id="path24" />
		<path
   class="st4"
   d="m 318.2,551.4 v -18.2 c 0,-0.3 0.1,-0.5 0.4,-0.7 0.3,-0.2 0.6,-0.3 1,-0.3 0.4,0 0.7,0.1 0.9,0.3 0.3,0.2 0.4,0.5 0.4,0.7 v 2.1 c 0.5,-1 1.3,-1.8 2.3,-2.4 1,-0.7 2.2,-1 3.5,-1 h 1.5 c 0.3,0 0.5,0.1 0.8,0.4 0.3,0.3 0.3,0.6 0.3,0.9 0,0.3 -0.1,0.7 -0.3,0.9 -0.2,0.2 -0.5,0.4 -0.8,0.4 h -1.5 c -1.5,0 -2.8,0.6 -4,1.7 -1.2,1.1 -1.7,2.7 -1.7,4.5 v 10.6 c 0,0.3 -0.1,0.5 -0.4,0.8 -0.3,0.2 -0.6,0.3 -1,0.3 -0.4,0 -0.7,-0.1 -1,-0.3 -0.3,-0.2 -0.4,-0.4 -0.4,-0.7 z"
   id="path26" />
		<path
   class="st4"
   d="m 339.6,547.1 c 0,-2.3 0.9,-3.8 2.6,-4.7 1.7,-0.9 4.2,-1.3 7.5,-1.3 h 2.2 v -1 c 0,-1.5 -0.4,-2.9 -1.2,-4 -0.8,-1.1 -2.1,-1.7 -3.8,-1.7 -1.1,0 -2.2,0.2 -3.1,0.6 -0.9,0.4 -1.4,0.6 -1.5,0.6 -0.3,0 -0.6,-0.2 -0.8,-0.5 -0.2,-0.3 -0.3,-0.7 -0.3,-1 0,-0.5 0.6,-1 1.8,-1.5 1.2,-0.5 2.6,-0.7 4,-0.7 2.7,0 4.7,0.8 5.9,2.3 1.2,1.6 1.9,3.5 1.9,6 v 11.2 c 0,0.3 -0.1,0.6 -0.4,0.8 -0.3,0.2 -0.6,0.3 -1,0.3 -0.4,0 -0.7,-0.1 -0.9,-0.3 -0.2,-0.2 -0.4,-0.5 -0.4,-0.8 v -1.9 c -1.9,2.2 -4.1,3.3 -6.5,3.3 -1.7,0 -3.1,-0.5 -4.2,-1.4 -1.2,-1 -1.8,-2.4 -1.8,-4.3 z m 2.8,-0.2 c 0,1.2 0.3,2.1 1,2.7 0.7,0.6 1.6,0.9 2.7,0.9 1.3,0 2.6,-0.5 3.8,-1.5 1.2,-1 1.8,-2 1.8,-3 v -2.8 H 350 c -1.1,0 -2.1,0 -2.9,0.1 -0.8,0.1 -1.6,0.2 -2.3,0.5 -0.8,0.2 -1.4,0.6 -1.8,1.1 -0.4,0.5 -0.6,1.2 -0.6,2 z m 1.4,-23.3 c 0,-0.3 0.1,-0.6 0.3,-0.8 0.2,-0.2 0.4,-0.4 0.7,-0.4 0.1,0 0.2,0 0.4,0.1 l 4.8,2.6 c 0.3,0.1 0.5,0.4 0.5,0.8 0,0.3 -0.1,0.6 -0.3,0.8 -0.2,0.2 -0.5,0.4 -0.8,0.4 -0.1,0 -0.3,0 -0.4,-0.1 l -4.6,-2.5 c -0.4,-0.1 -0.6,-0.5 -0.6,-0.9 z"
   id="path28" />
		<path
   class="st4"
   d="m 367.2,549.7 c 0,-0.3 0.1,-0.6 0.3,-0.9 0.2,-0.3 0.4,-0.4 0.7,-0.4 0.2,0 0.5,0.2 0.9,0.5 0.4,0.3 1,0.7 1.8,1 0.8,0.3 1.8,0.5 2.9,0.5 1.5,0 2.6,-0.3 3.4,-0.9 0.7,-0.6 1.1,-1.3 1.1,-2.2 0,-1 -0.4,-1.9 -1.1,-2.5 -0.7,-0.6 -1.6,-1.1 -2.6,-1.4 -1,-0.3 -2.1,-0.6 -3.1,-0.9 -1,-0.3 -1.9,-0.9 -2.7,-1.7 -0.7,-0.8 -1.1,-1.8 -1.1,-3.2 0,-1.6 0.6,-2.9 1.7,-4.1 1.1,-1.2 2.8,-1.7 5.1,-1.7 1.4,0 2.7,0.2 3.9,0.7 1.2,0.5 1.8,0.9 1.8,1.4 0,0.3 -0.1,0.6 -0.3,0.9 -0.2,0.3 -0.5,0.5 -0.8,0.5 -0.1,0 -0.6,-0.2 -1.6,-0.6 -1,-0.4 -2,-0.6 -3,-0.6 -1.4,0 -2.5,0.3 -3.2,1 -0.7,0.7 -1.1,1.4 -1.1,2.3 0,0.9 0.4,1.6 1.1,2.1 0.7,0.5 1.6,0.9 2.7,1.2 1,0.3 2.1,0.6 3.1,0.9 1.1,0.3 1.9,0.9 2.7,1.9 0.7,0.9 1.1,2.1 1.1,3.6 0,1.7 -0.6,3.1 -1.8,4.1 -1.2,1 -2.9,1.5 -5.1,1.5 -1.9,0 -3.5,-0.3 -4.8,-1 -1.4,-0.6 -2,-1.3 -2,-2 z"
   id="path30" />
		<path
   class="st4"
   d="m 383.3,522.6 c 0,-0.5 0.2,-1 0.6,-1.4 0.4,-0.4 0.8,-0.6 1.3,-0.6 0.5,0 1,0.2 1.3,0.6 0.4,0.4 0.6,0.9 0.6,1.4 0,0.6 -0.5,2.3 -1.6,4.9 -0.2,0.3 -0.4,0.5 -0.7,0.5 -0.3,0 -0.5,-0.1 -0.7,-0.3 -0.2,-0.2 -0.3,-0.4 -0.3,-0.6 0,-0.2 0,-0.3 0.1,-0.4 l 0.8,-2.2 c -0.4,-0.1 -0.7,-0.4 -0.9,-0.7 -0.3,-0.4 -0.5,-0.8 -0.5,-1.2 z"
   id="path32" />
		<path
   class="st4"
   d="m 389.2,547.1 c 0,-2.3 0.9,-3.8 2.6,-4.7 1.7,-0.9 4.2,-1.3 7.5,-1.3 h 2.2 v -1 c 0,-1.5 -0.4,-2.9 -1.2,-4 -0.8,-1.1 -2.1,-1.7 -3.8,-1.7 -1.1,0 -2.2,0.2 -3.1,0.6 -0.9,0.4 -1.4,0.6 -1.5,0.6 -0.3,0 -0.6,-0.2 -0.8,-0.5 -0.2,-0.3 -0.3,-0.6 -0.3,-1 0,-0.5 0.6,-1 1.8,-1.5 1.2,-0.5 2.6,-0.7 4,-0.7 2.7,0 4.7,0.8 5.9,2.3 1.2,1.6 1.9,3.5 1.9,6 v 11.2 c 0,0.3 -0.1,0.6 -0.4,0.8 -0.3,0.2 -0.6,0.3 -1,0.3 -0.4,0 -0.7,-0.1 -0.9,-0.3 -0.2,-0.2 -0.4,-0.5 -0.4,-0.8 v -1.9 c -1.9,2.2 -4.1,3.3 -6.5,3.3 -1.7,0 -3.1,-0.5 -4.2,-1.4 -1.2,-1 -1.8,-2.4 -1.8,-4.3 z m 2.8,-0.2 c 0,1.2 0.3,2.1 1,2.7 0.7,0.6 1.6,0.9 2.7,0.9 1.3,0 2.6,-0.5 3.8,-1.5 1.2,-1 1.8,-2 1.8,-3 v -2.8 h -1.8 c -1.1,0 -2.1,0 -2.9,0.1 -0.8,0.1 -1.6,0.2 -2.3,0.5 -0.8,0.2 -1.4,0.6 -1.8,1.1 -0.3,0.5 -0.5,1.2 -0.5,2 z"
   id="path34" />
		<path
   class="st4"
   d="m 409.5,525.6 c -0.4,-0.4 -0.6,-0.8 -0.6,-1.3 0,-0.5 0.2,-0.9 0.6,-1.2 0.4,-0.3 0.8,-0.5 1.4,-0.5 0.5,0 1,0.2 1.3,0.5 0.4,0.3 0.5,0.8 0.5,1.2 0,0.4 -0.2,0.9 -0.5,1.3 -0.4,0.4 -0.8,0.5 -1.3,0.5 -0.6,0.1 -1,-0.1 -1.4,-0.5 z m 0,25.8 v -18.2 c 0,-0.3 0.1,-0.5 0.4,-0.7 0.3,-0.2 0.6,-0.3 1,-0.3 0.4,0 0.7,0.1 1,0.3 0.3,0.2 0.4,0.4 0.4,0.7 v 18.2 c 0,0.3 -0.1,0.5 -0.4,0.8 -0.3,0.2 -0.6,0.3 -1,0.3 -0.4,0 -0.7,-0.1 -1,-0.3 -0.3,-0.3 -0.4,-0.5 -0.4,-0.8 z"
   id="path36" />
		<path
   class="st4"
   d="m 417.7,551.4 v -18.2 c 0,-0.3 0.1,-0.5 0.4,-0.7 0.3,-0.2 0.6,-0.3 1,-0.3 0.4,0 0.7,0.1 0.9,0.3 0.3,0.2 0.4,0.5 0.4,0.7 v 2 c 0.5,-1 1.3,-1.7 2.3,-2.4 1,-0.6 2.1,-0.9 3.5,-0.9 1.4,0 2.6,0.4 3.7,1.2 1.1,0.8 1.9,1.8 2.4,3.1 0.7,-1.4 1.7,-2.5 2.8,-3.2 1.2,-0.7 2.4,-1.1 3.7,-1.1 1.9,0 3.6,0.7 5.1,2.2 1.4,1.5 2.2,3.4 2.2,5.8 v 11.4 c 0,0.3 -0.1,0.5 -0.4,0.8 -0.3,0.2 -0.6,0.3 -1,0.3 -0.4,0 -0.7,-0.1 -1,-0.3 -0.3,-0.2 -0.4,-0.5 -0.4,-0.8 V 540 c 0,-1.7 -0.5,-3 -1.5,-4 -1,-1 -2.1,-1.5 -3.4,-1.5 -1.3,0 -2.5,0.5 -3.5,1.5 -1,1 -1.5,2.3 -1.5,3.8 v 11.6 c 0,0.7 -0.5,1.1 -1.4,1.1 -0.9,0 -1.4,-0.4 -1.4,-1.1 v -11.6 c 0,-1.5 -0.5,-2.8 -1.4,-3.8 -1,-1 -2.1,-1.5 -3.5,-1.5 -1.3,0 -2.5,0.5 -3.5,1.5 -1,1 -1.5,2.3 -1.5,4 v 11.4 c 0,0.3 -0.1,0.5 -0.4,0.8 -0.3,0.2 -0.6,0.3 -1,0.3 -0.4,0 -0.7,-0.1 -1,-0.3 -0.5,-0.3 -0.6,-0.5 -0.6,-0.8 z"
   id="path38" />
		<path
   class="st4"
   d="m 450.5,544.6 v -4.8 c 0,-2.1 0.8,-4 2.4,-5.6 1.6,-1.6 3.5,-2.3 5.8,-2.3 2.2,0 4.1,0.7 5.7,2.2 1.6,1.5 2.4,3.4 2.4,5.6 0,0.8 -0.1,1.4 -0.3,1.9 -0.2,0.5 -0.5,0.8 -0.9,1 -0.4,0.2 -0.8,0.3 -1.1,0.4 -0.3,0.1 -0.8,0.1 -1.4,0.1 h -9.7 v 1.6 c 0,1.7 0.6,3 1.8,4.1 1.2,1 2.8,1.5 4.7,1.5 1,0 1.8,-0.1 2.6,-0.4 0.7,-0.3 1.3,-0.6 1.7,-0.9 0.4,-0.3 0.7,-0.4 0.9,-0.4 0.3,0 0.6,0.2 0.8,0.5 0.2,0.3 0.4,0.6 0.4,0.9 0,0.6 -0.6,1.2 -1.8,1.9 -1.2,0.6 -2.8,1 -4.6,1 -2.7,0 -4.9,-0.8 -6.7,-2.3 -1.9,-1.5 -2.7,-3.5 -2.7,-6 z m 2.8,-3.5 h 8.6 c 0.9,0 1.4,-0.1 1.7,-0.3 0.3,-0.2 0.4,-0.6 0.4,-1.2 0,-1.4 -0.5,-2.7 -1.5,-3.8 -1,-1.1 -2.3,-1.6 -3.8,-1.6 -1.5,0 -2.8,0.5 -3.8,1.5 -1,1 -1.6,2.3 -1.6,3.7 z"
   id="path40" />
		<path
   class="st4"
   d="m 470.9,551.4 v -18.2 c 0,-0.3 0.1,-0.5 0.4,-0.7 0.3,-0.2 0.6,-0.3 1,-0.3 0.4,0 0.7,0.1 0.9,0.3 0.3,0.2 0.4,0.5 0.4,0.7 v 2.1 c 0.5,-1 1.3,-1.8 2.3,-2.4 1,-0.6 2.2,-1 3.5,-1 h 1.5 c 0.3,0 0.5,0.1 0.8,0.4 0.2,0.3 0.3,0.6 0.3,0.9 0,0.3 -0.1,0.7 -0.3,0.9 -0.2,0.3 -0.5,0.4 -0.8,0.4 h -1.5 c -1.5,0 -2.8,0.6 -4,1.7 -1.2,1.1 -1.7,2.7 -1.7,4.5 v 10.6 c 0,0.3 -0.1,0.5 -0.4,0.8 -0.3,0.2 -0.6,0.3 -1,0.3 -0.4,0 -0.7,-0.1 -1,-0.3 -0.2,-0.2 -0.4,-0.4 -0.4,-0.7 z"
   id="path42" />
	</g>
	<g
   id="g70">
		<rect
   x="79.800003"
   y="432.5"
   class="st3"
   width="477"
   height="93"
   id="rect46" />
		<path
   class="st1"
   d="m 84.4,444.6 c 0,-1.7 0.8,-3.1 2.3,-4.3 1.5,-1.2 3.4,-1.8 5.6,-1.8 2,0 3.7,0.6 5.1,1.8 1.4,1.2 2.1,2.6 2.1,4.3 0,1.6 -0.7,3 -2.1,4.3 -1.4,1.2 -3.1,1.8 -5.1,1.8 -2.2,0 -4.1,-0.6 -5.6,-1.8 -1.5,-1.3 -2.3,-2.7 -2.3,-4.3 z m 1.3,63.8 v -42.2 c 0,-1.3 0.6,-2.3 1.9,-3.1 1.2,-0.8 2.8,-1.2 4.7,-1.2 1.9,0 3.5,0.4 4.8,1.2 1.3,0.8 1.9,1.8 1.9,3.1 v 42.2 c 0,1.1 -0.7,2.1 -2,3 -1.3,0.9 -2.9,1.4 -4.7,1.4 -1.9,0 -3.4,-0.4 -4.7,-1.3 -1.3,-0.9 -1.9,-1.9 -1.9,-3.1 z"
   id="path48" />
		<path
   class="st1"
   d="m 109.7,508.4 v -42.2 c 0,-1.3 0.6,-2.3 1.9,-3.1 1.2,-0.8 2.9,-1.2 5,-1.2 1.7,0 3.2,0.4 4.3,1.2 1.2,0.8 1.8,1.8 1.8,3.1 v 3.2 c 1.1,-2.3 3,-4.2 5.5,-5.8 2.5,-1.6 5.5,-2.4 8.8,-2.4 4.9,0 9.2,2.1 12.9,6.4 3.7,4.3 5.5,9.4 5.5,15.3 v 25.4 c 0,1.4 -0.7,2.4 -2.1,3.2 -1.4,0.8 -3,1.2 -4.9,1.2 -1.8,0 -3.4,-0.4 -4.8,-1.2 -1.4,-0.8 -2.1,-1.8 -2.1,-3.2 V 483 c 0,-2.5 -0.9,-4.7 -2.8,-6.7 -1.9,-2 -4,-2.9 -6.5,-2.9 -2.4,0 -4.4,0.9 -6.2,2.7 -1.7,1.8 -2.6,4.1 -2.6,6.9 v 25.3 c 0,1.1 -0.7,2.1 -2.1,3 -1.4,0.9 -3,1.4 -4.9,1.4 -1.9,0 -3.5,-0.4 -4.9,-1.3 -1.2,-0.8 -1.8,-1.8 -1.8,-3 z"
   id="path50" />
		<path
   class="st1"
   d="m 165.5,495.7 v -51.3 c 0,-1.2 0.7,-2.2 2.1,-3 1.4,-0.8 3,-1.2 4.7,-1.2 1.9,0 3.5,0.4 4.9,1.2 1.4,0.8 2.1,1.8 2.1,2.9 V 462 h 12.6 c 1.1,0 1.9,0.5 2.6,1.6 0.6,1.1 1,2.4 1,3.8 0,1.5 -0.3,2.7 -1,3.8 -0.6,1.1 -1.5,1.6 -2.6,1.6 h -12.6 v 22.3 c 0,2 0.4,3.4 1.3,4.2 0.9,0.8 2.4,1.2 4.7,1.2 h 4.2 c 1.9,0 3.3,0.6 4.3,1.8 1,1.2 1.6,2.6 1.6,4.3 0,1.7 -0.5,3.2 -1.6,4.4 -1,1.2 -2.5,1.8 -4.3,1.8 h -4.2 c -13.2,0 -19.8,-5.7 -19.8,-17.1 z"
   id="path52" />
		<path
   class="st1"
   d="m 202,444.6 c 0,-1.7 0.8,-3.1 2.3,-4.3 1.5,-1.2 3.4,-1.8 5.6,-1.8 2,0 3.7,0.6 5.1,1.8 1.4,1.2 2.1,2.6 2.1,4.3 0,1.6 -0.7,3 -2.1,4.3 -1.4,1.2 -3.1,1.8 -5.1,1.8 -2.2,0 -4.1,-0.6 -5.6,-1.8 -1.5,-1.3 -2.3,-2.7 -2.3,-4.3 z m 1.3,63.8 v -42.2 c 0,-1.3 0.6,-2.3 1.9,-3.1 1.2,-0.8 2.8,-1.2 4.7,-1.2 1.9,0 3.5,0.4 4.8,1.2 1.3,0.8 1.9,1.8 1.9,3.1 v 42.2 c 0,1.1 -0.7,2.1 -2,3 -1.3,0.9 -2.9,1.4 -4.7,1.4 -1.9,0 -3.4,-0.4 -4.7,-1.3 -1.3,-0.9 -1.9,-1.9 -1.9,-3.1 z"
   id="path54" />
		<path
   class="st1"
   d="m 227.3,508.4 v -42.2 c 0,-1.3 0.6,-2.3 1.9,-3.1 1.2,-0.8 2.9,-1.2 5,-1.2 1.7,0 3.2,0.4 4.3,1.2 1.2,0.8 1.8,1.8 1.8,3.1 v 3.2 c 3.1,-5.5 7.8,-8.2 14.1,-8.2 3,0 5.7,1 8.1,3 2.4,2 4.2,4.6 5.3,7.8 1.8,-3.5 4.1,-6.2 7,-8 2.9,-1.8 5.9,-2.8 9.1,-2.8 5.1,0 9.6,2 13.4,5.9 3.8,3.9 5.7,9.2 5.7,15.8 v 25.4 c 0,1.1 -0.7,2.1 -2.1,3 -1.4,0.9 -3,1.4 -4.9,1.4 -1.8,0 -3.4,-0.5 -4.8,-1.4 -1.4,-0.9 -2.1,-1.9 -2.1,-3 V 483 c 0,-3 -0.9,-5.4 -2.6,-7.1 -1.7,-1.7 -3.7,-2.6 -6.1,-2.6 -2.3,0 -4.3,0.9 -5.9,2.6 -1.7,1.7 -2.5,4.1 -2.5,7 v 25.5 c 0,1.4 -0.7,2.5 -2,3.2 -1.4,0.7 -3,1.1 -4.9,1.1 -1.8,0 -3.4,-0.4 -4.8,-1.1 -1.4,-0.7 -2.1,-1.8 -2.1,-3.1 v -25.4 c 0,-2.8 -0.9,-5.2 -2.6,-6.9 -1.7,-1.8 -3.8,-2.7 -6.2,-2.7 -2.3,0 -4.2,0.9 -5.9,2.6 -1.6,1.7 -2.5,4.1 -2.5,7 v 25.3 c 0,1.1 -0.7,2.1 -2.1,3 -1.4,0.9 -3,1.4 -4.9,1.4 -1.9,0 -3.5,-0.4 -4.9,-1.3 -1.2,-0.9 -1.8,-1.9 -1.8,-3.1 z"
   id="path56" />
		<path
   class="st1"
   d="m 309.9,440.8 c 0,-2 0.7,-3.7 2,-5.1 1.3,-1.4 3,-2.1 4.9,-2.1 1.9,0 3.6,0.7 4.9,2.1 1.4,1.4 2.1,3.1 2.1,5 0,1.3 -2,6.5 -6,15.7 -0.5,1.1 -1.4,1.7 -2.8,1.7 -1.1,0 -2.1,-0.3 -3.1,-1 -1,-0.7 -1.5,-1.6 -1.5,-2.6 0,-0.5 0.1,-1 0.4,-1.5 l 2.5,-5.7 c -2.3,-1.4 -3.4,-3.6 -3.4,-6.5 z"
   id="path58" />
		<path
   class="st2"
   d="m 331,444.6 c 0,-1.7 0.8,-3.1 2.3,-4.3 1.5,-1.2 3.4,-1.8 5.6,-1.8 2,0 3.7,0.6 5.1,1.8 1.4,1.2 2.1,2.6 2.1,4.3 0,1.6 -0.7,3 -2.1,4.3 -1.4,1.2 -3.1,1.8 -5.1,1.8 -2.2,0 -4.1,-0.6 -5.6,-1.8 -1.5,-1.3 -2.3,-2.7 -2.3,-4.3 z m 1.3,63.8 v -42.2 c 0,-1.3 0.6,-2.3 1.9,-3.1 1.2,-0.8 2.8,-1.2 4.7,-1.2 1.9,0 3.5,0.4 4.8,1.2 1.3,0.8 1.9,1.8 1.9,3.1 v 42.2 c 0,1.1 -0.7,2.1 -2,3 -1.3,0.9 -2.9,1.4 -4.7,1.4 -1.9,0 -3.4,-0.4 -4.7,-1.3 -1.2,-0.9 -1.9,-1.9 -1.9,-3.1 z"
   id="path60" />
		<path
   class="st2"
   d="m 354.5,491.9 v -8.8 c 0,-5.9 1.9,-11 5.6,-15.3 3.7,-4.3 8.2,-6.4 13.4,-6.4 3.1,0 5.9,0.8 8.3,2.4 2.4,1.6 4.2,3.5 5.5,5.8 v -32.8 c 0,-1.3 0.7,-2.3 2,-3.1 1.3,-0.8 3,-1.2 5,-1.2 2,0 3.6,0.4 4.9,1.2 1.3,0.8 1.9,1.8 1.9,3.1 v 71.7 c 0,1.1 -0.7,2.2 -2,3 -1.3,0.9 -2.9,1.3 -4.9,1.3 -1.6,0 -3.1,-0.5 -4.3,-1.4 -1.2,-0.9 -1.9,-1.9 -1.9,-3 v -3.1 c -1.1,2.3 -3.1,4.3 -5.8,6 -2.7,1.7 -5.8,2.5 -9,2.5 -4.9,0 -9.3,-2.2 -13.1,-6.6 -3.7,-4.5 -5.6,-9.6 -5.6,-15.3 z m 13.8,-0.1 c 0,2.5 0.9,4.7 2.8,6.7 1.9,2 4,3 6.5,3 2.5,0 4.7,-1 6.7,-2.9 2,-1.9 3,-3.6 3,-4.9 v -10.6 c 0,-2.8 -1,-5.1 -2.9,-6.9 -2,-1.8 -4.2,-2.7 -6.7,-2.7 -2.6,0 -4.8,1 -6.6,2.9 -1.9,1.9 -2.8,4.2 -2.8,6.6 z"
   id="path62" />
		<path
   class="st2"
   d="m 410,491.9 v -9.1 c 0,-5.8 2.3,-10.9 6.8,-15.1 4.6,-4.2 10.1,-6.3 16.6,-6.3 6.1,0 11.3,1.9 15.6,5.8 4.3,3.8 6.5,8.7 6.5,14.5 0,2.1 -0.3,3.9 -0.8,5.2 -0.5,1.4 -1.4,2.3 -2.5,2.9 -1.1,0.6 -2.1,0.9 -3,1.1 -0.9,0.1 -2.1,0.2 -3.6,0.2 h -21.7 v 1.6 c 0,3.1 1.1,5.5 3.4,7.4 2.3,1.9 5.3,2.8 9.1,2.8 2.7,0 5.4,-0.7 8,-2 2.6,-1.4 4.3,-2 5.1,-2 1.5,0 2.7,0.7 3.7,2.1 1,1.4 1.5,2.7 1.5,4 0,2 -1.8,4 -5.4,5.9 -3.6,2 -8.1,2.9 -13.4,2.9 -7.6,0 -13.9,-2 -18.7,-6 -4.8,-4.1 -7.2,-9.4 -7.2,-15.9 z m 12.7,-45.1 c 0,-1.6 0.6,-2.7 1.8,-3.3 l 14.1,-6.8 c 0.7,-0.1 1.2,-0.2 1.4,-0.2 1.1,0 2.1,0.6 3,1.7 0.9,1.1 1.3,2.3 1.3,3.6 0,1.6 -0.6,2.6 -1.9,3.2 l -13.9,6.7 c -0.7,0.3 -1.2,0.4 -1.5,0.4 -1.1,0 -2.1,-0.6 -3,-1.7 -0.8,-1.2 -1.3,-2.4 -1.3,-3.6 z m 1.1,36.1 h 15.6 c 1.1,0 1.9,-0.2 2.4,-0.6 0.5,-0.4 0.7,-1.1 0.7,-2.1 0,-2.3 -0.9,-4.2 -2.7,-5.7 -1.8,-1.5 -4,-2.2 -6.7,-2.2 -2.5,0 -4.7,0.7 -6.5,2.1 -1.9,1.4 -2.8,3.3 -2.8,5.6 z"
   id="path64" />
		<path
   class="st2"
   d="m 461.8,491.9 v -9.1 c 0,-5.8 2.3,-10.9 6.8,-15.1 4.6,-4.2 10.1,-6.3 16.6,-6.3 6.1,0 11.3,1.9 15.6,5.8 4.3,3.8 6.5,8.7 6.5,14.5 0,2.1 -0.3,3.9 -0.8,5.2 -0.5,1.4 -1.4,2.3 -2.5,2.9 -1.1,0.6 -2.1,0.9 -3,1.1 -0.9,0.1 -2.1,0.2 -3.6,0.2 h -21.7 v 1.6 c 0,3.1 1.1,5.5 3.4,7.4 2.3,1.9 5.3,2.8 9.1,2.8 2.7,0 5.4,-0.7 8,-2 2.6,-1.4 4.3,-2 5.1,-2 1.5,0 2.7,0.7 3.7,2.1 1,1.4 1.5,2.7 1.5,4 0,2 -1.8,4 -5.4,5.9 -3.6,2 -8.1,2.9 -13.4,2.9 -7.6,0 -13.9,-2 -18.7,-6 -4.8,-4.1 -7.2,-9.4 -7.2,-15.9 z m 13.8,-9 h 15.6 c 1.1,0 1.9,-0.2 2.4,-0.6 0.5,-0.4 0.7,-1.1 0.7,-2.1 0,-2.3 -0.9,-4.2 -2.7,-5.7 -1.8,-1.5 -4,-2.2 -6.7,-2.2 -2.5,0 -4.7,0.7 -6.5,2.1 -1.9,1.4 -2.8,3.3 -2.8,5.6 z"
   id="path66" />
		<path
   class="st2"
   d="m 512.3,504.6 c 0,-1.3 0.5,-2.6 1.4,-4 0.9,-1.4 2,-2.1 3.2,-2.1 0.8,0 1.8,0.4 3,1.1 1.2,0.7 2.8,1.4 4.7,2.2 1.9,0.7 4.3,1.1 6.9,1.1 5.3,0 7.9,-1.5 7.9,-4.5 0,-1.7 -0.9,-3 -2.6,-4 -1.7,-1 -3.9,-1.8 -6.3,-2.4 -2.5,-0.6 -4.9,-1.4 -7.4,-2.2 -2.5,-0.9 -4.6,-2.3 -6.4,-4.4 -1.7,-2 -2.6,-4.7 -2.6,-7.9 0,-4.4 1.5,-8.2 4.6,-11.4 3.1,-3.2 7.9,-4.8 14.6,-4.8 4.4,0 8.4,0.7 11.8,2 3.5,1.4 5.2,3 5.2,4.9 0,1.2 -0.5,2.6 -1.4,4.2 -0.9,1.6 -2.2,2.4 -3.6,2.4 -0.6,0 -2.1,-0.4 -4.7,-1.3 -2.5,-0.9 -4.9,-1.3 -7.1,-1.3 -2.4,0 -4.3,0.5 -5.6,1.5 -1.3,1 -1.9,2 -1.9,3.2 0,1.2 0.6,2.2 1.9,2.9 1.3,0.7 2.9,1.4 4.8,1.8 1.9,0.4 3.9,1 6.1,1.7 2.2,0.7 4.2,1.6 6,2.6 1.8,1 3.4,2.5 4.7,4.5 1.3,2 1.9,4.5 1.9,7.4 0,4.9 -1.7,8.8 -5.2,11.7 -3.5,2.8 -8.3,4.3 -14.5,4.3 -5.3,0 -9.9,-0.9 -13.7,-2.8 -3.8,-1.9 -5.7,-4 -5.7,-6.4 z"
   id="path68" />
	</g>
	<g
   id="g86">
		<path
   class="st1"
   d="m 435.6,246.4 c 0,57 -117.2,156.3 -117.2,156.3 0,0 -117.2,-99.3 -117.2,-156.3"
   id="path72" />
		<circle
   class="st1"
   cx="376.89999"
   cy="246.39999"
   r="58.599998"
   id="circle74" />
		<path
   class="st2"
   d="m 359.2,128.2 c -11.8,-11 -26.7,-16.4 -41.6,-16.4 v 0 c -14.9,0 -29.9,5.5 -41.6,16.4 -23.1,21.5 -26.5,57.1 -8.3,82.8 8.5,11.1 13,24.7 13,38.6 0,3.3 1.3,6.5 3.6,8.9 1.3,1.3 2.9,2.3 4.6,2.9 v 34.2 c 0,8.9 7,16.7 15.5,16.7 H 331 c 8.3,0 15.3,-7.9 15.3,-16.7 0,-0.2 0,-11 0,-20.9 v -13.3 c 1.7,-0.6 3.3,-1.6 4.6,-2.9 2.3,-2.3 3.6,-5.5 3.6,-8.9 0,-13.9 4.6,-27.5 13,-38.6 18.3,-25.7 14.8,-61.3 -8.3,-82.8 z"
   id="path76" />
		<line
   class="st5"
   x1="318.29999"
   y1="99.599998"
   x2="318.29999"
   y2="73.800003"
   id="line78" />
		<line
   class="st5"
   x1="370.5"
   y1="120.2"
   x2="388.70001"
   y2="101.9"
   id="line80" />
		<line
   class="st5"
   x1="265.89999"
   y1="120.2"
   x2="247.60001"
   y2="101.9"
   id="line82" />
		<circle
   class="st1"
   cx="259.70001"
   cy="246.39999"
   r="58.599998"
   id="circle84" />
	</g>
</g>
</svg>
